"id","name","model_id:id","group_id:id","perm_read","perm_write","perm_create","perm_unlink"
"access_giscedata_variants_u","giscedata.variants","model_giscedata_variants","giscedata_facturacio.group_giscedata_facturacio_u",1,1,1,1
"access_giscedata_variants_r","giscedata.variants","model_giscedata_variants","giscedata_facturacio.group_giscedata_facturacio_r",1,0,0,0
"access_giscedata_variants_w","giscedata.variants","model_giscedata_variants","giscedata_facturacio.group_giscedata_facturacio_w",1,1,1,0
