"id","name","model_id:id","group_id:id","perm_read","perm_write","perm_create","perm_unlink"
"access_giscedata_bt_quadre_element_tipus_r","giscedata.bt.quadre.element.tipus","model_giscedata_bt_quadre_element_tipus","giscedata_bt.group_giscedata_bt_r",1,0,0,0
"access_giscedata_bt_quadre_element_tipus_w","giscedata.bt.quadre.element.tipus","model_giscedata_bt_quadre_element_tipus","giscedata_bt.group_giscedata_bt_w",1,1,1,0
"access_giscedata_bt_quadre_element_tipus_u","giscedata.bt.quadre.element.tipus","model_giscedata_bt_quadre_element_tipus","giscedata_bt.group_giscedata_bt_u",1,1,1,1
"access_giscedata_bt_quadre_element_r","giscedata.bt.quadre.element","model_giscedata_bt_quadre_element","giscedata_bt.group_giscedata_bt_r",1,0,0,0
"access_giscedata_bt_quadre_element_w","giscedata.bt.quadre.element","model_giscedata_bt_quadre_element","giscedata_bt.group_giscedata_bt_w",1,1,1,0
"access_giscedata_bt_quadre_element_u","giscedata.bt.quadre.element","model_giscedata_bt_quadre_element","giscedata_bt.group_giscedata_bt_u",1,1,1,1
