"id","name","model_id:id","group_id:id","perm_read","perm_write","perm_create","perm_unlink"
"access_config_taxes_facturacio_distri_r","config.taxes.facturacio.distri","model_config_taxes_facturacio_distri","giscedata_facturacio.group_giscedata_facturacio_r",1,0,0,0
"access_wizard_generar_liquidacions_r","wizard.generar.liquidacions","model_wizard_generar_liquidacions","giscedata_facturacio.group_giscedata_facturacio_r",1,0,0,0
"access_wizard_export_xmls_r","wizard.export.xmls","model_wizard_export_xmls","giscedata_facturacio.group_giscedata_facturacio_r",1,0,0,0
"access_wizard_export_pdfs_r","wizard.export.pdfs","model_wizard_export_pdfs","giscedata_facturacio.group_giscedata_facturacio_r",1,0,0,0
"access_config_taxes_facturacio_distri_w","config.taxes.facturacio.distri","model_config_taxes_facturacio_distri","giscedata_facturacio.group_giscedata_facturacio_w",1,1,1,0
"access_wizard_generar_liquidacions_w","wizard.generar.liquidacions","model_wizard_generar_liquidacions","giscedata_facturacio.group_giscedata_facturacio_w",1,1,1,0
"access_wizard_export_xmls_w","wizard.export.xmls","model_wizard_export_xmls","giscedata_facturacio.group_giscedata_facturacio_w",1,1,1,0
"access_wizard_export_pdfs_w","wizard.export.pdfs","model_wizard_export_pdfs","giscedata_facturacio.group_giscedata_facturacio_w",1,1,1,0
"access_config_taxes_facturacio_distri_u","config.taxes.facturacio.distri","model_config_taxes_facturacio_distri","giscedata_facturacio.group_giscedata_facturacio_u",1,1,1,1
"access_wizard_generar_liquidacions_u","wizard.generar.liquidacions","model_wizard_generar_liquidacions","giscedata_facturacio.group_giscedata_facturacio_u",1,1,1,1
"access_wizard_export_xmls_u","wizard.export.xmls","model_wizard_export_xmls","giscedata_facturacio.group_giscedata_facturacio_u",1,1,1,1
"access_wizard_export_pdfs_u","wizard.export.pdfs","model_wizard_export_pdfs","giscedata_facturacio.group_giscedata_facturacio_u",1,1,1,1
"access_foreign_giscedata_liquidacio_fpd_r","giscedata.liquidacio.fpd","giscedata_liquidacio.model_giscedata_liquidacio_fpd","giscedata_facturacio.group_giscedata_facturacio_r",1,0,0,0
"access_foreign_giscedata_liquidacio_fpd_u","giscedata.liquidacio.fpd","giscedata_liquidacio.model_giscedata_liquidacio_fpd","giscedata_facturacio.group_giscedata_facturacio_u",1,0,0,0
"access_foreign_giscedata_liquidacio_fpd_w","giscedata.liquidacio.fpd","giscedata_liquidacio.model_giscedata_liquidacio_fpd","giscedata_facturacio.group_giscedata_facturacio_w",1,0,0,0
"access_foreign_giscedata_liquidacio_tarifes_r","giscedata.liquidacio.tarifes","giscedata_liquidacio.model_giscedata_liquidacio_tarifes","giscedata_facturacio.group_giscedata_facturacio_r",1,0,0,0
"access_foreign_giscedata_liquidacio_tarifes_u","giscedata.liquidacio.tarifes","giscedata_liquidacio.model_giscedata_liquidacio_tarifes","giscedata_facturacio.group_giscedata_facturacio_u",1,0,0,0
"access_foreign_giscedata_liquidacio_tarifes_w","giscedata.liquidacio.tarifes","giscedata_liquidacio.model_giscedata_liquidacio_tarifes","giscedata_facturacio.group_giscedata_facturacio_w",1,0,0,0
"access_wizard_quotes_cne_linia_r","wizard.quotes.cne.linia","model_wizard_quotes_cne_linia","giscedata_facturacio.group_giscedata_facturacio_r",1,0,0,0
"access_wizard_quotes_cne_linia_u","wizard.quotes.cne.linia","model_wizard_quotes_cne_linia","giscedata_facturacio.group_giscedata_facturacio_u",1,1,1,1
"access_wizard_quotes_cne_linia_w","wizard.quotes.cne.linia","model_wizard_quotes_cne_linia","giscedata_facturacio.group_giscedata_facturacio_w",1,1,1,0
"access_wizard_quotes_cne_r","wizard.quotes.cne","model_wizard_quotes_cne","giscedata_facturacio.group_giscedata_facturacio_r",1,0,0,0
"access_wizard_quotes_cne_u","wizard.quotes.cne","model_wizard_quotes_cne","giscedata_facturacio.group_giscedata_facturacio_u",1,1,1,1
"access_wizard_quotes_cne_w","wizard.quotes.cne","model_wizard_quotes_cne","giscedata_facturacio.group_giscedata_facturacio_w",1,1,1,0
