"id","name","model_id:id","group_id:id","perm_read","perm_write","perm_create","perm_unlink"
"access_giscegis_simulacio_bt","giscegis.simulacio.bt","model_giscegis_simulacio_bt","base.group_user",1,1,1,0
"access_giscegis_simulacio_bt_resultats","giscegis.simulacio.bt.resultats","model_giscegis_simulacio_bt_resultats","base.group_user",1,1,1,0
"access_giscegis_simulacio_bt_resultats_escomeses","giscegis.simulacio.bt.resultats.escomeses","model_giscegis_simulacio_bt_resultats_escomeses","base.group_user",1,1,1,0
