"id","name","model_id:id","group_id:id","perm_read","perm_write","perm_create","perm_unlink"
"access_giscegis_network_r","giscegis.network","model_giscegis_network","giscegis_network.group_giscegis_network_r",1,0,0,0
"access_giscegis_network_w","giscegis.network","model_giscegis_network","giscegis_network.group_giscegis_network_w",1,1,1,0
"access_giscegis_network_u","giscegis.network","model_giscegis_network","giscegis_network.group_giscegis_network_u",1,1,1,1
