"id","name","model_id:id","group_id:id","perm_read","perm_write","perm_create","perm_unlink"
"access_giscedata_suplements_territorials_2013_comer_u","giscedata.suplements.territorials.2013.comer","model_giscedata_suplements_territorials_2013_comer","giscedata_facturacio.group_giscedata_facturacio_u",1,1,1,1
"access_giscedata_suplements_territorials_2013_comer_r","giscedata.suplements.territorials.2013.comer","model_giscedata_suplements_territorials_2013_comer","giscedata_facturacio.group_giscedata_facturacio_r",1,0,0,0
"access_giscedata_suplements_territorials_2013_comer_w","giscedata.suplements.territorials.2013.comer","model_giscedata_suplements_territorials_2013_comer","giscedata_facturacio.group_giscedata_facturacio_w",1,1,1,0
"access_wizard_import_sup_territorials_csv_u","wizard.import.sup.territorials.csv","model_wizard_import_sup_territorials_csv","giscedata_facturacio.group_giscedata_facturacio_u",1,1,1,1
"access_wizard_import_sup_territorials_csv_r","wizard.import.sup.territorials.csv","model_wizard_import_sup_territorials_csv","giscedata_facturacio.group_giscedata_facturacio_r",1,0,0,0
"access_wizard_import_sup_territorials_csv_w","wizard.import.sup.territorials.csv","model_wizard_import_sup_territorials_csv","giscedata_facturacio.group_giscedata_facturacio_w",1,1,1,0
