"id","name","model_id:id","group_id:id","perm_read","perm_write","perm_create","perm_unlink"
"access_company_wise_cost_price","company.wise.cost.price","model_company_wise_cost_price","product.group_product_manager",1,1,1,1
"access_company_wise_sale_price","company.wise.sale.price","model_company_wise_sale_price","product.group_product_manager",1,1,1,1
