"id","name","model_id:id","group_id:id","perm_read","perm_write","perm_create","perm_unlink"
"access_product_location_uos","product.location","model_product_location","product.group_uos",1,0,0,0
"access_product_location_manager","product.location","model_product_location","product.group_product_manager",1,1,1,1
