"id","name","model_id:id","group_id:id","perm_read","perm_write","perm_create","perm_unlink"
"access_giscedata_liquidacio_tarifes_r","giscedata.liquidacio.tarifes","model_giscedata_liquidacio_tarifes","giscedata_liquidacio.group_giscedata_liquidacio_r",1,0,0,0
"access_giscedata_liquidacio_fpd_r","giscedata.liquidacio.fpd","model_giscedata_liquidacio_fpd","giscedata_liquidacio.group_giscedata_liquidacio_r",1,0,0,0
"access_giscedata_liquidacio_fpd_tarifa_r","giscedata.liquidacio.fpd.tarifa","model_giscedata_liquidacio_fpd_tarifa","giscedata_liquidacio.group_giscedata_liquidacio_r",1,0,0,0
"access_giscedata_liquidacio_ftd_r","giscedata.liquidacio.ftd","model_giscedata_liquidacio_ftd","giscedata_liquidacio.group_giscedata_liquidacio_r",1,0,0,0
"access_giscedata_liquidacio_dh_r","giscedata.liquidacio.dh","model_giscedata_liquidacio_dh","giscedata_liquidacio.group_giscedata_liquidacio_r",1,0,0,0
"access_giscedata_liquidacio_ftd_tarifa_r","giscedata.liquidacio.ftd.tarifa","model_giscedata_liquidacio_ftd_tarifa","giscedata_liquidacio.group_giscedata_liquidacio_r",1,0,0,0
"access_giscedata_liquidacio_curs_r","giscedata.liquidacio.curs","model_giscedata_liquidacio_curs","giscedata_liquidacio.group_giscedata_liquidacio_r",1,0,0,0
"access_giscedata_liquidacio_rfur_r","giscedata.liquidacio.rfur","model_giscedata_liquidacio_rfur","giscedata_liquidacio.group_giscedata_liquidacio_r",1,0,0,0
"access_giscedata_liquidacio_rfur_cur_r","giscedata.liquidacio.rfur.cur","model_giscedata_liquidacio_rfur_cur","giscedata_liquidacio.group_giscedata_liquidacio_r",1,0,0,0
"access_giscedata_liquidacio_fpa_r","giscedata.liquidacio.fpa","model_giscedata_liquidacio_fpa","giscedata_liquidacio.group_giscedata_liquidacio_r",1,0,0,0
"access_giscedata_liquidacio_fpa_mesos_r","giscedata.liquidacio.fpa.mesos","model_giscedata_liquidacio_fpa_mesos","giscedata_liquidacio.group_giscedata_liquidacio_r",1,0,0,0
"access_giscedata_liquidacio_periodes_tarifaris_r","giscedata.liquidacio.periodes_tarifaris","model_giscedata_liquidacio_periodes_tarifaris","giscedata_liquidacio.group_giscedata_liquidacio_r",1,0,0,0
"access_giscedata_liquidacio_fpcc_r","giscedata.liquidacio.fpcc","model_giscedata_liquidacio_fpcc","giscedata_liquidacio.group_giscedata_liquidacio_r",1,0,0,0
"access_giscedata_liquidacio_fpcc_tarifa_r","giscedata.liquidacio.fpcc.tarifa","model_giscedata_liquidacio_fpcc_tarifa","giscedata_liquidacio.group_giscedata_liquidacio_r",1,0,0,0
"access_giscedata_liquidacio_fpd_exportar_csv_wizard_r","giscedata.liquidacio.fpd.exportar.csv.wizard","model_giscedata_liquidacio_fpd_exportar_csv_wizard","giscedata_liquidacio.group_giscedata_liquidacio_r",1,0,0,0
"access_giscedata_liquidacio_tarifes_w","giscedata.liquidacio.tarifes","model_giscedata_liquidacio_tarifes","giscedata_liquidacio.group_giscedata_liquidacio_w",1,1,1,0
"access_giscedata_liquidacio_fpd_w","giscedata.liquidacio.fpd","model_giscedata_liquidacio_fpd","giscedata_liquidacio.group_giscedata_liquidacio_w",1,1,1,0
"access_giscedata_liquidacio_fpd_tarifa_w","giscedata.liquidacio.fpd.tarifa","model_giscedata_liquidacio_fpd_tarifa","giscedata_liquidacio.group_giscedata_liquidacio_w",1,1,1,0
"access_giscedata_liquidacio_ftd_w","giscedata.liquidacio.ftd","model_giscedata_liquidacio_ftd","giscedata_liquidacio.group_giscedata_liquidacio_w",1,1,1,0
"access_giscedata_liquidacio_dh_w","giscedata.liquidacio.dh","model_giscedata_liquidacio_dh","giscedata_liquidacio.group_giscedata_liquidacio_w",1,1,1,0
"access_giscedata_liquidacio_ftd_tarifa_w","giscedata.liquidacio.ftd.tarifa","model_giscedata_liquidacio_ftd_tarifa","giscedata_liquidacio.group_giscedata_liquidacio_w",1,1,1,0
"access_giscedata_liquidacio_curs_w","giscedata.liquidacio.curs","model_giscedata_liquidacio_curs","giscedata_liquidacio.group_giscedata_liquidacio_w",1,1,1,0
"access_giscedata_liquidacio_rfur_w","giscedata.liquidacio.rfur","model_giscedata_liquidacio_rfur","giscedata_liquidacio.group_giscedata_liquidacio_w",1,1,1,0
"access_giscedata_liquidacio_rfur_cur_w","giscedata.liquidacio.rfur.cur","model_giscedata_liquidacio_rfur_cur","giscedata_liquidacio.group_giscedata_liquidacio_w",1,1,1,0
"access_giscedata_liquidacio_fpa_w","giscedata.liquidacio.fpa","model_giscedata_liquidacio_fpa","giscedata_liquidacio.group_giscedata_liquidacio_w",1,1,1,0
"access_giscedata_liquidacio_fpa_mesos_w","giscedata.liquidacio.fpa.mesos","model_giscedata_liquidacio_fpa_mesos","giscedata_liquidacio.group_giscedata_liquidacio_w",1,1,1,0
"access_giscedata_liquidacio_periodes_tarifaris_w","giscedata.liquidacio.periodes_tarifaris","model_giscedata_liquidacio_periodes_tarifaris","giscedata_liquidacio.group_giscedata_liquidacio_w",1,1,1,0
"access_giscedata_liquidacio_fpcc_w","giscedata.liquidacio.fpcc","model_giscedata_liquidacio_fpcc","giscedata_liquidacio.group_giscedata_liquidacio_w",1,1,1,0
"access_giscedata_liquidacio_fpcc_tarifa_w","giscedata.liquidacio.fpcc.tarifa","model_giscedata_liquidacio_fpcc_tarifa","giscedata_liquidacio.group_giscedata_liquidacio_w",1,1,1,0
"access_giscedata_liquidacio_fpd_exportar_csv_wizard_w","giscedata.liquidacio.fpd.exportar.csv.wizard","model_giscedata_liquidacio_fpd_exportar_csv_wizard","giscedata_liquidacio.group_giscedata_liquidacio_w",1,1,1,0
"access_giscedata_liquidacio_tarifes_u","giscedata.liquidacio.tarifes","model_giscedata_liquidacio_tarifes","giscedata_liquidacio.group_giscedata_liquidacio_u",1,1,1,1
"access_giscedata_liquidacio_fpd_u","giscedata.liquidacio.fpd","model_giscedata_liquidacio_fpd","giscedata_liquidacio.group_giscedata_liquidacio_u",1,1,1,1
"access_giscedata_liquidacio_fpd_tarifa_u","giscedata.liquidacio.fpd.tarifa","model_giscedata_liquidacio_fpd_tarifa","giscedata_liquidacio.group_giscedata_liquidacio_u",1,1,1,1
"access_giscedata_liquidacio_ftd_u","giscedata.liquidacio.ftd","model_giscedata_liquidacio_ftd","giscedata_liquidacio.group_giscedata_liquidacio_u",1,1,1,1
"access_giscedata_liquidacio_dh_u","giscedata.liquidacio.dh","model_giscedata_liquidacio_dh","giscedata_liquidacio.group_giscedata_liquidacio_u",1,1,1,1
"access_giscedata_liquidacio_ftd_tarifa_u","giscedata.liquidacio.ftd.tarifa","model_giscedata_liquidacio_ftd_tarifa","giscedata_liquidacio.group_giscedata_liquidacio_u",1,1,1,1
"access_giscedata_liquidacio_curs_u","giscedata.liquidacio.curs","model_giscedata_liquidacio_curs","giscedata_liquidacio.group_giscedata_liquidacio_u",1,1,1,1
"access_giscedata_liquidacio_rfur_u","giscedata.liquidacio.rfur","model_giscedata_liquidacio_rfur","giscedata_liquidacio.group_giscedata_liquidacio_u",1,1,1,1
"access_giscedata_liquidacio_rfur_cur_u","giscedata.liquidacio.rfur.cur","model_giscedata_liquidacio_rfur_cur","giscedata_liquidacio.group_giscedata_liquidacio_u",1,1,1,1
"access_giscedata_liquidacio_fpa_u","giscedata.liquidacio.fpa","model_giscedata_liquidacio_fpa","giscedata_liquidacio.group_giscedata_liquidacio_u",1,1,1,1
"access_giscedata_liquidacio_fpa_mesos_u","giscedata.liquidacio.fpa.mesos","model_giscedata_liquidacio_fpa_mesos","giscedata_liquidacio.group_giscedata_liquidacio_u",1,1,1,1
"access_giscedata_liquidacio_periodes_tarifaris_u","giscedata.liquidacio.periodes_tarifaris","model_giscedata_liquidacio_periodes_tarifaris","giscedata_liquidacio.group_giscedata_liquidacio_u",1,1,1,1
"access_giscedata_liquidacio_fpcc_u","giscedata.liquidacio.fpcc","model_giscedata_liquidacio_fpcc","giscedata_liquidacio.group_giscedata_liquidacio_u",1,1,1,1
"access_giscedata_liquidacio_fpcc_tarifa_u","giscedata.liquidacio.fpcc.tarifa","model_giscedata_liquidacio_fpcc_tarifa","giscedata_liquidacio.group_giscedata_liquidacio_u",1,1,1,1
"access_giscedata_liquidacio_fpd_exportar_csv_wizard_u","giscedata.liquidacio.fpd.exportar.csv.wizard","model_giscedata_liquidacio_fpd_exportar_csv_wizard","giscedata_liquidacio.group_giscedata_liquidacio_u",1,1,1,1
"access_foreign_res_company_r","res.company","base.model_res_company","giscedata_liquidacio.group_giscedata_liquidacio_r",1,0,0,0
"access_foreign_res_company_u","res.company","base.model_res_company","giscedata_liquidacio.group_giscedata_liquidacio_u",1,0,0,0
"access_foreign_res_company_w","res.company","base.model_res_company","giscedata_liquidacio.group_giscedata_liquidacio_w",1,0,0,0
"access_giscedata_liquidacio_fpfr_r","giscedata.liquidacio.fpfr","model_giscedata_liquidacio_fpfr","giscedata_liquidacio.group_giscedata_liquidacio_r",1,0,0,0
"access_giscedata_liquidacio_fpfr_w","giscedata.liquidacio.fpfr","model_giscedata_liquidacio_fpfr","giscedata_liquidacio.group_giscedata_liquidacio_w",1,1,1,0
"access_giscedata_liquidacio_fpfr_u","giscedata.liquidacio.fpfr","model_giscedata_liquidacio_fpfr","giscedata_liquidacio.group_giscedata_liquidacio_u",1,1,1,1
"access_giscedata_liquidacio_fpfr_tarifa_r","giscedata.liquidacio.fpfr.tarifa","model_giscedata_liquidacio_fpfr_tarifa","giscedata_liquidacio.group_giscedata_liquidacio_r",1,0,0,0
"access_giscedata_liquidacio_fpfr_tarifa_w","giscedata.liquidacio.fpfr.tarifa","model_giscedata_liquidacio_fpfr_tarifa","giscedata_liquidacio.group_giscedata_liquidacio_w",1,1,1,0
"access_giscedata_liquidacio_fpfr_tarifa_u","giscedata.liquidacio.fpfr.tarifa","model_giscedata_liquidacio_fpfr_tarifa","giscedata_liquidacio.group_giscedata_liquidacio_u",1,1,1,1