"id","name","model_id:id","group_id:id","perm_read","perm_write","perm_create","perm_unlink"
"access_extracto_bancario_concepto","extracto_bancario_concepto","model_l10n_es_extractos_concepto","account.group_account_user",1,0,0,0
"access_extracto_bancario_concepto_manager","extracto_bancario_concepto manager","model_l10n_es_extractos_concepto","account.group_account_manager",1,1,1,1
"access_extracto_bancario_import_wizard_manager","extracto_bancario_import_wizard manager","model_l10n_es_extractos_import_wizard","account.group_account_manager",1,1,1,1
