"id","name","model_id:id","group_id:id","perm_read","perm_write","perm_create","perm_unlink"
"access_foreign_res_company_r","res.company","base.model_res_company","giscedata_cups.group_giscedata_cups_r",1,0,0,0
"access_foreign_res_company_u","res.company","base.model_res_company","giscedata_cups.group_giscedata_cups_u",1,0,0,0
"access_foreign_res_company_w","res.company","base.model_res_company","giscedata_cups.group_giscedata_cups_w",1,0,0,0
