"id","name","model_id:id","group_id:id","perm_read","perm_write","perm_create","perm_unlink"
"access_wizard_informes_polissa_u","wizard.informes.polissa","model_wizard_informes_polissa","giscedata_polissa.group_giscedata_polissa_u",1,1,1,1
"access_wizard_informes_polissa_r","wizard.informes.polissa","model_wizard_informes_polissa","giscedata_polissa.group_giscedata_polissa_r",1,0,0,0
"access_wizard_informes_polissa_w","wizard.informes.polissa","model_wizard_informes_polissa","giscedata_polissa.group_giscedata_polissa_w",1,1,0,0