"id","name","model_id:id","group_id:id","perm_read","perm_write","perm_create","perm_unlink"
"access_giscedata_descarrecs_sollicitud_r","giscedata.descarrecs.sollicitud","model_giscedata_descarrecs_sollicitud","giscedata_descarrecs.group_giscedata_descarrecs_r",1,0,0,0
"access_giscedata_descarrecs_operacions_obertura_r","giscedata.descarrecs.operacions.obertura","model_giscedata_descarrecs_operacions_obertura","giscedata_descarrecs.group_giscedata_descarrecs_r",1,0,0,0
"access_giscedata_descarrecs_operacions_tancament_r","giscedata.descarrecs.operacions.tancament","model_giscedata_descarrecs_operacions_tancament","giscedata_descarrecs.group_giscedata_descarrecs_r",1,0,0,0
"access_giscedata_descarrecs_descarrec_r","giscedata.descarrecs.descarrec","model_giscedata_descarrecs_descarrec","giscedata_descarrecs.group_giscedata_descarrecs_r",1,0,0,0
"access_giscedata_descarrecs_descarrec_installacions_r","giscedata.descarrecs.descarrec.installacions","model_giscedata_descarrecs_descarrec_installacions","giscedata_descarrecs.group_giscedata_descarrecs_r",1,0,0,0
"access_giscedata_descarrecs_descarrec_clients_r","giscedata.descarrecs.descarrec.clients","model_giscedata_descarrecs_descarrec_clients","giscedata_descarrecs.group_giscedata_descarrecs_r",1,0,0,0
"access_giscedata_descarrecs_avis_mail_r","giscedata.descarrecs.avis.mail","model_giscedata_descarrecs_avis_mail","giscedata_descarrecs.group_giscedata_descarrecs_r",1,0,0,0
"access_giscedata_descarrecs_sollicitud_w","giscedata.descarrecs.sollicitud","model_giscedata_descarrecs_sollicitud","giscedata_descarrecs.group_giscedata_descarrecs_w",1,1,1,0
"access_giscedata_descarrecs_operacions_obertura_w","giscedata.descarrecs.operacions.obertura","model_giscedata_descarrecs_operacions_obertura","giscedata_descarrecs.group_giscedata_descarrecs_w",1,1,1,0
"access_giscedata_descarrecs_operacions_tancament_w","giscedata.descarrecs.operacions.tancament","model_giscedata_descarrecs_operacions_tancament","giscedata_descarrecs.group_giscedata_descarrecs_w",1,1,1,0
"access_giscedata_descarrecs_descarrec_w","giscedata.descarrecs.descarrec","model_giscedata_descarrecs_descarrec","giscedata_descarrecs.group_giscedata_descarrecs_w",1,1,1,0
"access_giscedata_descarrecs_descarrec_installacions_w","giscedata.descarrecs.descarrec.installacions","model_giscedata_descarrecs_descarrec_installacions","giscedata_descarrecs.group_giscedata_descarrecs_w",1,1,1,0
"access_giscedata_descarrecs_descarrec_clients_w","giscedata.descarrecs.descarrec.clients","model_giscedata_descarrecs_descarrec_clients","giscedata_descarrecs.group_giscedata_descarrecs_w",1,1,1,0
"access_giscedata_descarrecs_avis_mail_w","giscedata.descarrecs.avis.mail","model_giscedata_descarrecs_avis_mail","giscedata_descarrecs.group_giscedata_descarrecs_w",1,1,1,0
"access_giscedata_descarrecs_sollicitud_u","giscedata.descarrecs.sollicitud","model_giscedata_descarrecs_sollicitud","giscedata_descarrecs.group_giscedata_descarrecs_u",1,1,1,1
"access_giscedata_descarrecs_operacions_obertura_u","giscedata.descarrecs.operacions.obertura","model_giscedata_descarrecs_operacions_obertura","giscedata_descarrecs.group_giscedata_descarrecs_u",1,1,1,1
"access_giscedata_descarrecs_operacions_tancament_u","giscedata.descarrecs.operacions.tancament","model_giscedata_descarrecs_operacions_tancament","giscedata_descarrecs.group_giscedata_descarrecs_u",1,1,1,1
"access_giscedata_descarrecs_descarrec_u","giscedata.descarrecs.descarrec","model_giscedata_descarrecs_descarrec","giscedata_descarrecs.group_giscedata_descarrecs_u",1,1,1,1
"access_giscedata_descarrecs_descarrec_installacions_u","giscedata.descarrecs.descarrec.installacions","model_giscedata_descarrecs_descarrec_installacions","giscedata_descarrecs.group_giscedata_descarrecs_u",1,1,1,1
"access_giscedata_descarrecs_descarrec_clients_u","giscedata.descarrecs.descarrec.clients","model_giscedata_descarrecs_descarrec_clients","giscedata_descarrecs.group_giscedata_descarrecs_u",1,1,1,1
"access_giscedata_descarrecs_avis_mail_u","giscedata.descarrecs.avis.mail","model_giscedata_descarrecs_avis_mail","giscedata_descarrecs.group_giscedata_descarrecs_u",1,1,1,1
"access_foreign_giscedata_cts_zona_r","giscedata.cts.zona","giscedata_cts.model_giscedata_cts_zona","giscedata_descarrecs.group_giscedata_descarrecs_r",1,0,0,0
"access_foreign_giscedata_cts_zona_u","giscedata.cts.zona","giscedata_cts.model_giscedata_cts_zona","giscedata_descarrecs.group_giscedata_descarrecs_u",1,0,0,0
"access_foreign_giscedata_cts_zona_w","giscedata.cts.zona","giscedata_cts.model_giscedata_cts_zona","giscedata_descarrecs.group_giscedata_descarrecs_w",1,0,0,0
"access_foreign_giscedata_polissa_r","giscedata.polissa","giscedata_polissa.model_giscedata_polissa","giscedata_descarrecs.group_giscedata_descarrecs_r",1,0,0,0
"access_foreign_giscedata_polissa_u","giscedata.polissa","giscedata_polissa.model_giscedata_polissa","giscedata_descarrecs.group_giscedata_descarrecs_u",1,0,0,0
"access_foreign_giscedata_polissa_w","giscedata.polissa","giscedata_polissa.model_giscedata_polissa","giscedata_descarrecs.group_giscedata_descarrecs_w",1,0,0,0
"access_foreign_giscegis_configsimulacio_at_r","giscegis.configsimulacio.at","giscegis_configsimulacio_at.model_giscegis_configsimulacio_at","giscedata_descarrecs.group_giscedata_descarrecs_r",1,0,0,0
"access_foreign_giscegis_configsimulacio_at_u","giscegis.configsimulacio.at","giscegis_configsimulacio_at.model_giscegis_configsimulacio_at","giscedata_descarrecs.group_giscedata_descarrecs_u",1,0,0,0
"access_foreign_giscegis_configsimulacio_at_w","giscegis.configsimulacio.at","giscegis_configsimulacio_at.model_giscegis_configsimulacio_at","giscedata_descarrecs.group_giscedata_descarrecs_w",1,0,0,0
"access_foreign_res_municipi_r","res.municipi","base_extended.model_res_municipi","giscedata_descarrecs.group_giscedata_descarrecs_r",1,0,0,0
"access_foreign_res_municipi_u","res.municipi","base_extended.model_res_municipi","giscedata_descarrecs.group_giscedata_descarrecs_u",1,0,0,0
"access_foreign_res_municipi_w","res.municipi","base_extended.model_res_municipi","giscedata_descarrecs.group_giscedata_descarrecs_w",1,0,0,0
"access_foreign_res_partner_address_r","res.partner.address","base.model_res_partner_address","giscedata_descarrecs.group_giscedata_descarrecs_r",1,0,0,0
"access_foreign_res_partner_address_u","res.partner.address","base.model_res_partner_address","giscedata_descarrecs.group_giscedata_descarrecs_u",1,0,0,0
"access_foreign_res_partner_address_w","res.partner.address","base.model_res_partner_address","giscedata_descarrecs.group_giscedata_descarrecs_w",1,0,0,0
"access_giscedata_descarrec_2_incidencia_u","giscedata.descarrec.2.incidencia","model_giscedata_descarrec_2_incidencia","giscedata_descarrecs.group_giscedata_descarrecs_u",1,1,1,1
"access_giscedata_descarrec_2_incidencia_r","giscedata.descarrec.2.incidencia","model_giscedata_descarrec_2_incidencia","giscedata_descarrecs.group_giscedata_descarrecs_r",1,0,0,0
"access_giscedata_descarrec_2_incidencia_w","giscedata.descarrec.2.incidencia","model_giscedata_descarrec_2_incidencia","giscedata_descarrecs.group_giscedata_descarrecs_w",1,1,1,0
"access_giscedata_descarrecs_descarrec_carrers_afectats_u","giscedata.descarrecs.descarrec.carrers.afectats","model_giscedata_descarrecs_descarrec_carrers_afectats","giscedata_descarrecs.group_giscedata_descarrecs_u",1,1,1,1
"access_giscedata_descarrecs_descarrec_carrers_afectats_r","giscedata.descarrecs.descarrec.carrers.afectats","model_giscedata_descarrecs_descarrec_carrers_afectats","giscedata_descarrecs.group_giscedata_descarrecs_r",1,0,0,0
"access_giscedata_descarrecs_descarrec_carrers_afectats_w","giscedata.descarrecs.descarrec.carrers.afectats","model_giscedata_descarrecs_descarrec_carrers_afectats","giscedata_descarrecs.group_giscedata_descarrecs_w",1,1,1,0
"access_giscedata_descarrecs_comunicat_carrer_u","giscedata.descarrecs.comunicat.carrer","model_giscedata_descarrecs_comunicat_carrer","giscedata_descarrecs.group_giscedata_descarrecs_u",1,1,1,1
"access_giscedata_descarrecs_comunicat_carrer_r","giscedata.descarrecs.comunicat.carrer","model_giscedata_descarrecs_comunicat_carrer","giscedata_descarrecs.group_giscedata_descarrecs_r",1,0,0,0
"access_giscedata_descarrecs_comunicat_carrer_w","giscedata.descarrecs.comunicat.carrer","model_giscedata_descarrecs_comunicat_carrer","giscedata_descarrecs.group_giscedata_descarrecs_w",1,1,1,0
"access_giscedata_descarrecs_operacions_tipus_accio_r","giscedata.descarrecs.operacions_tipus_accio","model_giscedata_descarrecs_operacions_tipus_accio","giscedata_descarrecs.group_giscedata_descarrecs_r",1,0,0,0
"access_giscedata_descarrecs_operacions_tipus_accio_u","giscedata.descarrecs.operacions_tipus_accio","model_giscedata_descarrecs_operacions_tipus_accio","giscedata_descarrecs.group_giscedata_descarrecs_u",1,1,1,1
"access_giscedata_descarrecs_operacions_tipus_accio_w","giscedata.descarrecs.operacions_tipus_accio","model_giscedata_descarrecs_operacions_tipus_accio","giscedata_descarrecs.group_giscedata_descarrecs_w",1,1,1,0
"access_giscedata_enviar_mails_avisos_descarrecs_u","giscedata.enviar.mails.avisos.descarrecs","model_giscedata_enviar_mails_avisos_descarrecs","giscedata_descarrecs.group_giscedata_descarrecs_u",1,1,1,1
"access_giscedata_enviar_mails_avisos_descarrecs_r","giscedata.enviar.mails.avisos.descarrecs","model_giscedata_enviar_mails_avisos_descarrecs","giscedata_descarrecs.group_giscedata_descarrecs_r",1,0,0,0
"access_giscedata_enviar_mails_avisos_descarrecs_w","giscedata.enviar.mails.avisos.descarrecs","model_giscedata_enviar_mails_avisos_descarrecs","giscedata_descarrecs.group_giscedata_descarrecs_w",1,1,1,0
"access_giscedata_descarrecs_descarrec_export_u","giscedata.descarrecs.descarrec.export","model_giscedata_descarrecs_descarrec_export","giscedata_descarrecs.group_giscedata_descarrecs_u",1,1,1,1
"access_giscedata_descarrecs_descarrec_export_r","giscedata.descarrecs.descarrec.export","model_giscedata_descarrecs_descarrec_export","giscedata_descarrecs.group_giscedata_descarrecs_r",1,1,1,0
"access_giscedata_descarrecs_descarrec_export_w","giscedata.descarrecs.descarrec.export","model_giscedata_descarrecs_descarrec_export","giscedata_descarrecs.group_giscedata_descarrecs_w",1,1,1,0
