"id","name","model_id:id","group_id:id","perm_read","perm_write","perm_create","perm_unlink"
"access_giscegis_configsimulacio_at_r","giscegis.configsimulacio.at","model_giscegis_configsimulacio_at","giscegis_base.group_giscegis_base_r",1,0,0,0
"access_giscegis_configsimulacio_at_oberts_r","giscegis.configsimulacio.at.oberts","model_giscegis_configsimulacio_at_oberts","giscegis_base.group_giscegis_base_r",1,0,0,0
"access_giscegis_configsimulacio_at_w","giscegis.configsimulacio.at","model_giscegis_configsimulacio_at","giscegis_base.group_giscegis_base_w",1,1,1,0
"access_giscegis_configsimulacio_at_oberts_w","giscegis.configsimulacio.at.oberts","model_giscegis_configsimulacio_at_oberts","giscegis_base.group_giscegis_base_w",1,1,1,0
"access_giscegis_configsimulacio_at_u","giscegis.configsimulacio.at","model_giscegis_configsimulacio_at","giscegis_base.group_giscegis_base_u",1,1,1,1
"access_giscegis_configsimulacio_at_oberts_u","giscegis.configsimulacio.at.oberts","model_giscegis_configsimulacio_at_oberts","giscegis_base.group_giscegis_base_u",1,1,1,1
