"id","name","model_id:id","group_id:id","perm_read","perm_write","perm_create","perm_unlink"
"access_giscedata_lectures_origen_comer_r","giscedata.lectures.origen_comer","model_giscedata_lectures_origen_comer","giscedata_lectures.group_giscedata_lectures_r",1,0,0,0
"access_giscedata_lectures_origen_comer_w","giscedata.lectures.origen_comer","model_giscedata_lectures_origen_comer","giscedata_lectures.group_giscedata_lectures_w",1,1,1,0
"access_giscedata_lectures_origen_comer_u","giscedata.lectures.origen_comer","model_giscedata_lectures_origen_comer","giscedata_lectures.group_giscedata_lectures_u",1,1,1,1
