"id","name","model_id:id","group_id:id","perm_read","perm_write","perm_create","perm_unlink"
"access_giscedata_transformador_connexio","giscedata.transformador.connexio","model_giscedata_transformador_connexio","base.group_user",1,1,1,0
"access_giscedata_transformador_connexio_situacio","giscedata.transformador.connexio.situacio","model_giscedata_transformador_connexio_situacio","base.group_user",1,1,1,0
"access_giscedata_transformador_connexioune","giscedata.transformador.connexioune","model_giscedata_transformador_connexioune","base.group_user",1,1,1,0
"access_giscedata_transformador_estat","giscedata.transformador.estat","model_giscedata_transformador_estat","base.group_user",1,1,1,0
"access_giscedata_transformador_historic","giscedata.transformador.historic","model_giscedata_transformador_historic","base.group_user",1,1,1,0
"access_giscedata_transformador_incidencia","giscedata.transformador.incidencia","model_giscedata_transformador_incidencia","base.group_user",1,1,1,0
"access_giscedata_transformador_localitzacio","giscedata.transformador.localitzacio","model_giscedata_transformador_localitzacio","base.group_user",1,1,1,0
"access_giscedata_transformador_magatzem","giscedata.transformador.magatzem","model_giscedata_transformador_magatzem","base.group_user",1,1,1,0
"access_giscedata_transformador_marca","giscedata.transformador.marca","model_giscedata_transformador_marca","base.group_user",1,1,1,0
"access_giscedata_transformador_mesures","giscedata.transformador.mesures","model_giscedata_transformador_mesures","base.group_user",1,1,1,0
"access_giscedata_transformador_refrigerant","giscedata.transformador.refrigerant","model_giscedata_transformador_refrigerant","base.group_user",1,1,1,0
"access_giscedata_transformador_trafo","giscedata.transformador.trafo","model_giscedata_transformador_trafo","base.group_user",1,1,1,0
