"id","name","model_id:id","group_id:id","perm_read","perm_write","perm_create","perm_unlink"
"access_smsclient","sms.smsclient","model_sms_smsclient","group_sms_user",1,0,0,0
"access_smsclient_parms","sms.smsclient.parms","model_sms_smsclient_parms","group_sms_user",1,0,0,0
"access_smsclient_queue","sms.smsclient.queue","model_sms_smsclient_queue","group_sms_user",1,1,1,1