"id","name","model_id:id","group_id:id","perm_read","perm_write","perm_create","perm_unlink"
"access_sys_config_rcw","sys.config","model_sys_config","system_controller.group_system_controller_user",1,1,1,0
"access_sys_server_category_rcw","sys.server.category","model_sys_server_category","system_controller.group_system_controller_user",1,1,1,0
"access_sys_server_rcw","sys.server","model_sys_server","system_controller.group_system_controller_user",1,1,1,0
"access_sys_erpserver_setting_rcw","sys.erpserver.setting","model_sys_erpserver_setting","system_controller.group_system_controller_user",1,1,1,0
"access_sys_pip_requirement_rcw","sys.pip.requirement","model_sys_pip_requirement","system_controller.group_system_controller_user",1,1,1,0
"access_sys_module_rcw","sys.module","model_sys_module","system_controller.group_system_controller_user",1,1,1,0
"access_sys_installed_module_rcw","sys.installed.module","model_sys_installed_module","system_controller.group_system_controller_user",1,1,1,0
"access_sys_supervisor_rcw","sys.supervisor","model_sys_supervisor","system_controller.group_system_controller_user",1,1,1,0
"access_sys_supervisor_config_rcw","sys.supervisor.config","model_sys_supervisor_config","system_controller.group_system_controller_user",1,1,1,0
"access_sys_repository_rcw","sys.repository","model_sys_repository","system_controller.group_system_controller_user",1,1,1,0
"access_sys_deployment_rcw","sys.deployment","model_sys_deployment","system_controller.group_system_controller_user",1,1,1,0
"access_sys_config_rcwd","sys.config","model_sys_config","system_controller.group_system_controller_manager",1,1,1,1
"access_sys_server_category_rcwd","sys.server.category","model_sys_server_category","system_controller.group_system_controller_manager",1,1,1,1
"access_sys_server_rcwd","sys.server","model_sys_server","system_controller.group_system_controller_manager",1,1,1,1
"access_sys_erpserver_setting_rcwd","sys.erpserver.setting","model_sys_erpserver_setting","system_controller.group_system_controller_manager",1,1,1,1
"access_sys_pip_requirement_rcwd","sys.pip.requirement","model_sys_pip_requirement","system_controller.group_system_controller_manager",1,1,1,1
"access_sys_module_rcwd","sys.module","model_sys_module","system_controller.group_system_controller_manager",1,1,1,1
"access_sys_installed_module_rcwd","sys.installed.module","model_sys_installed_module","system_controller.group_system_controller_manager",1,1,1,1
"access_sys_supervisor_rcwd","sys.supervisor","model_sys_supervisor","system_controller.group_system_controller_manager",1,1,1,1
"access_sys_supervisor_config_rcwd","sys.supervisor.config","model_sys_supervisor_config","system_controller.group_system_controller_manager",1,1,1,1
"access_sys_repository_rcwd","sys.repository","model_sys_repository","system_controller.group_system_controller_manager",1,1,1,1
"access_sys_deployment_rcwd","sys.deployment","model_sys_deployment","system_controller.group_system_controller_manager",1,1,1,1
