"id","name","model_id:id","group_id:id","perm_read","perm_write","perm_create","perm_unlink"
"access_giscegas_lectures_origen_comer_r","giscegas.lectures.origen_comer","model_giscegas_lectures_origen_comer","giscegas_lectures.group_giscegas_lectures_r",1,0,0,0
"access_giscegas_lectures_origen_comer_w","giscegas.lectures.origen_comer","model_giscegas_lectures_origen_comer","giscegas_lectures.group_giscegas_lectures_w",1,1,1,0
"access_giscegas_lectures_origen_comer_u","giscegas.lectures.origen_comer","model_giscegas_lectures_origen_comer","giscegas_lectures.group_giscegas_lectures_u",1,1,1,1
