id,name,model_id:id,group_id:id,perm_read,perm_write,perm_create,perm_unlink
"access_crm_impagos_user","crm impagos user","model_crm_impagos","giscedata_polissa.group_giscedata_polissa_w",1,1,1,0
"access_crm_impagos_manager","crm impagos manager","model_crm_impagos","giscedata_polissa.group_giscedata_polissa_u",1,1,1,1
"access_crm_juridico_user","crm juridico user","model_crm_juridico","crm_dpt_consulta_juridico",1,0,0,0
"access_crm_juridico_manager","crm juridico manager","model_crm_juridico","crm_dpt_juridico",1,1,1,1
"access_actualizar_crm_juridico_user","actualizar crm juridico user","model_actualizar_crm_juridico","crm_dpt_consulta_juridico",1,0,0,0
"access_actualizar_crm_juridico_manager","actualizar crm juridico manager","model_actualizar_crm_juridico","crm_dpt_juridico",1,1,1,1