"id","name","model_id:id","group_id:id","perm_read","perm_write","perm_create","perm_unlink"
"access_jobs_task_user","job.task","model_job_task","group_jobs_user",1,1,1,0
"access_jobs_task_manager","job.task","model_job_task","group_jobs_manager",1,1,1,1
"access_jobs_task_line_user","job.task.line","model_job_task_line","group_jobs_user",1,1,1,0
"access_jobs_task_line_manager","job.task.line","model_job_task_line","group_jobs_manager",1,1,1,1
"access_jobs_project_user","job.project","model_job_project","group_jobs_user",1,0,0,0
"access_jobs_project_manager","job.project","model_job_project","group_jobs_manager",1,1,1,1
"access_jobs_ceco_user","job.ceco","model_job_ceco","group_jobs_user",1,0,0,0
"access_jobs_ceco_manager","job.ceco","model_job_ceco","group_jobs_manager",1,1,1,1
"access_jobs_task_ceco_user","job.task.ceco","model_job_task_ceco","group_jobs_user",1,0,0,0
"access_jobs_task_ceco_manager","job.task.ceco","model_job_task_ceco","group_jobs_manager",1,1,1,1
"access_jobs_task_facility_user","job.task.facility","model_job_task_facility","group_jobs_user",1,1,1,0
"access_jobs_task_facility_manager","job.task.facility","model_job_task_facility","group_jobs_manager",1,1,1,1
"access_jobs_task_type_user","job.task.type","model_job_task_type","group_jobs_user",1,1,1,0
"access_jobs_task_type_manager","job.task.type","model_job_task_type","group_jobs_manager",1,1,1,1
"access_jobs_wizard_split","wizard.split.task","model_wizard_split_task","group_jobs_financial",1,1,1,1
"access_jobs_wizard_split_line","wizard.split.task.line","model_wizard_split_task_line","group_jobs_financial",1,1,1,1
"access_jobs_wizard_assign_hours","wizard.task.assign.hours","model_wizard_task_assign_hours","group_jobs_user",1,1,1,1
"access_jobs_wizard_assign_hours_line","wizard.task.assign.hours.line","model_wizard_task_assign_hours_line","group_jobs_user",1,1,1,1
"access_jobs_wizard_show_tasks","wizard.show.task","model_wizard_show_task","group_jobs_user",1,1,1,1