"id","name","model_id:id","group_id:id","perm_read","perm_write","perm_create","perm_unlink"
"access_wizard_saturacio_trafo_from_tg_r","wizard.saturacio.trafo.from.tg","model_wizard_saturacio_trafo_from_tg","giscedata_cts.group_giscedata_cts_r",1,0,0,0
"access_wizard_saturacio_trafo_from_tg_w","wizard.saturacio.trafo.from.tg","model_wizard_saturacio_trafo_from_tg","giscedata_cts.group_giscedata_cts_w",1,1,1,0
"access_wizard_saturacio_trafo_from_tg_u","wizard.saturacio.trafo.from.tg","model_wizard_saturacio_trafo_from_tg","giscedata_cts.group_giscedata_cts_u",1,1,1,1
"access_wizard_saturacio_report_r","wizard.saturacio.report","model_wizard_saturacio_report","giscedata_cts.group_giscedata_cts_r",1,0,0,0
"access_wizard_saturacio_report_w","wizard.saturacio.report","model_wizard_saturacio_report","giscedata_cts.group_giscedata_cts_w",1,1,1,0
"access_wizard_saturacio_report_u","wizard.saturacio.report","model_wizard_saturacio_report","giscedata_cts.group_giscedata_cts_u",1,1,1,1