"id","name","model_id:id","group_id:id","perm_read","perm_write","perm_create","perm_unlink"
"access_giscedata_fotovoltaiques_dispositiu_protector","giscedata_fotovoltaiques_dispositiu_protector","model_giscedata_fotovoltaiques_dispositiu_protector","base.group_user",1,1,1,0
"access_giscedata_fotovoltaiques_elements_connexio","giscedata_fotovoltaiques_elements_connexio","model_giscedata_fotovoltaiques_elements_connexio","base.group_user",1,1,1,0
"access_giscedata_fotovoltaiques_installacio","giscedata_fotovoltaiques_installacio","model_giscedata_fotovoltaiques_installacio","base.group_user",1,1,1,0
"access_giscedata_fotovoltaiques_inversor","giscedata_fotovoltaiques_inversor","model_giscedata_fotovoltaiques_inversor","base.group_user",1,1,1,0
"access_giscedata_fotovoltaiques_modes_connexio","giscedata_fotovoltaiques_modes_connexio","model_giscedata_fotovoltaiques_modes_connexio","base.group_user",1,1,1,0
"access_giscedata_fotovoltaiques_sollicitud","giscedata_fotovoltaiques_sollicitud","model_giscedata_fotovoltaiques_sollicitud","base.group_user",1,1,1,0
