"id","name","model_id:id","group_id:id","perm_read","perm_write","perm_create","perm_unlink"
"access_giscegis_font_geom","giscegis.font.geom","model_giscegis_font_geom","base.group_user",1,1,1,0
"access_giscegis_font_geom_r","giscegis.font.geom","model_giscegis_font_geom","base.group_user",1,1,1,0
"access_giscegis_font_geom_w","giscegis.font.geom","model_giscegis_font_geom","base.group_user",1,1,1,0
"access_giscegis_font_geom_u","giscegis.font.geom","model_giscegis_font_geom","base.group_user",1,1,1,0
