"id","name","model_id:id","group_id:id","perm_read","perm_write","perm_create","perm_unlink"
"access_invoice_tax_list_r","invoice.tax.list","model_invoice_tax_list","giscedata_facturacio.group_giscedata_facturacio_r",1,0,0,0
"access_invoice_tax_list_u","invoice.tax.list","model_invoice_tax_list","giscedata_facturacio.group_giscedata_facturacio_u",1,1,1,1
"access_invoice_tax_list_w","invoice.tax.list","model_invoice_tax_list","giscedata_facturacio.group_giscedata_facturacio_w",1,1,1,0
"access_invoice_tax_resume_r","invoice.tax.resume","model_invoice_tax_resume","giscedata_facturacio.group_giscedata_facturacio_r",1,0,0,0
"access_invoice_tax_resume_u","invoice.tax.resume","model_invoice_tax_resume","giscedata_facturacio.group_giscedata_facturacio_u",1,1,1,1
"access_invoice_tax_resume_w","invoice.tax.resume","model_invoice_tax_resume","giscedata_facturacio.group_giscedata_facturacio_w",1,1,1,0
"access_invoice_tax_summary_r","invoice.tax.summary","model_invoice_tax_summary","giscedata_facturacio.group_giscedata_facturacio_r",1,0,0,0
"access_invoice_tax_summary_u","invoice.tax.summary","model_invoice_tax_summary","giscedata_facturacio.group_giscedata_facturacio_u",1,1,1,1
"access_invoice_tax_summary_w","invoice.tax.summary","model_invoice_tax_summary","giscedata_facturacio.group_giscedata_facturacio_w",1,1,1,0
"access_tax_code_filter_r","tax.code.filter","model_tax_code_filter","giscedata_facturacio.group_giscedata_facturacio_r",1,0,0,0
"access_tax_code_filter_u","tax.code.filter","model_tax_code_filter","giscedata_facturacio.group_giscedata_facturacio_u",1,1,1,1
"access_tax_code_filter_w","tax.code.filter","model_tax_code_filter","giscedata_facturacio.group_giscedata_facturacio_w",1,1,1,0
"access_tax_code_group_r","tax.code.group","model_tax_code_group","giscedata_facturacio.group_giscedata_facturacio_r",1,0,0,0
"access_tax_code_group_u","tax.code.group","model_tax_code_group","giscedata_facturacio.group_giscedata_facturacio_u",1,1,1,1
"access_tax_code_group_w","tax.code.group","model_tax_code_group","giscedata_facturacio.group_giscedata_facturacio_w",1,1,1,0
"access_foreign_account_fiscalyear_r","account.fiscalyear","account.model_account_fiscalyear","giscedata_facturacio.group_giscedata_facturacio_r",1,0,0,0
"access_foreign_account_fiscalyear_u","account.fiscalyear","account.model_account_fiscalyear","giscedata_facturacio.group_giscedata_facturacio_u",1,0,0,0
"access_foreign_account_fiscalyear_w","account.fiscalyear","account.model_account_fiscalyear","giscedata_facturacio.group_giscedata_facturacio_w",1,0,0,0
"access_foreign_account_tax_code_r","account.tax.code","account.model_account_tax_code","giscedata_facturacio.group_giscedata_facturacio_r",1,0,0,0
"access_foreign_account_tax_code_u","account.tax.code","account.model_account_tax_code","giscedata_facturacio.group_giscedata_facturacio_u",1,0,0,0
"access_foreign_account_tax_code_w","account.tax.code","account.model_account_tax_code","giscedata_facturacio.group_giscedata_facturacio_w",1,0,0,0
"access_foreign_res_company_r","res.company","base.model_res_company","giscedata_facturacio.group_giscedata_facturacio_r",1,0,0,0
"access_foreign_res_company_u","res.company","base.model_res_company","giscedata_facturacio.group_giscedata_facturacio_u",1,0,0,0
"access_foreign_res_company_w","res.company","base.model_res_company","giscedata_facturacio.group_giscedata_facturacio_w",1,0,0,0
