"id","name","model_id:id","group_id:id","perm_read","perm_write","perm_create","perm_unlink"
"access_giscedata_transformador_localitzacio_r","giscedata.transformador.localitzacio","model_giscedata_transformador_localitzacio","giscedata_cts.group_giscedata_cts_r",1,0,0,0
"access_giscedata_transformador_estat_r","giscedata.transformador.estat","model_giscedata_transformador_estat","giscedata_cts.group_giscedata_cts_r",1,0,0,0
"access_giscedata_transformador_connexioune_r","giscedata.transformador.connexioune","model_giscedata_transformador_connexioune","giscedata_cts.group_giscedata_cts_r",1,0,0,0
"access_giscedata_transformador_refrigerant_r","giscedata.transformador.refrigerant","model_giscedata_transformador_refrigerant","giscedata_cts.group_giscedata_cts_r",1,0,0,0
"access_giscedata_transformador_marca_r","giscedata.transformador.marca","model_giscedata_transformador_marca","giscedata_cts.group_giscedata_cts_r",1,0,0,0
"access_giscedata_transformador_magatzem_r","giscedata.transformador.magatzem","model_giscedata_transformador_magatzem","giscedata_cts.group_giscedata_cts_r",1,0,0,0
"access_giscedata_transformador_trafo_r","giscedata.transformador.trafo","model_giscedata_transformador_trafo","giscedata_cts.group_giscedata_cts_r",1,0,0,0
"access_giscedata_transformador_mesures_r","giscedata.transformador.mesures","model_giscedata_transformador_mesures","giscedata_cts.group_giscedata_cts_r",1,0,0,0
"access_giscedata_transformador_connexio_situacio_r","giscedata.transformador.connexio.situacio","model_giscedata_transformador_connexio_situacio","giscedata_cts.group_giscedata_cts_r",1,0,0,0
"access_giscedata_transformador_connexio_r","giscedata.transformador.connexio","model_giscedata_transformador_connexio","giscedata_cts.group_giscedata_cts_r",1,0,0,0
"access_giscedata_transformador_historic_r","giscedata.transformador.historic","model_giscedata_transformador_historic","giscedata_cts.group_giscedata_cts_r",1,0,0,0
"access_giscedata_transformador_incidencia_r","giscedata.transformador.incidencia","model_giscedata_transformador_incidencia","giscedata_cts.group_giscedata_cts_r",1,0,0,0
"access_giscedata_transformador_localitzacio_w","giscedata.transformador.localitzacio","model_giscedata_transformador_localitzacio","giscedata_cts.group_giscedata_cts_w",1,1,1,0
"access_giscedata_transformador_estat_w","giscedata.transformador.estat","model_giscedata_transformador_estat","giscedata_cts.group_giscedata_cts_w",1,1,1,0
"access_giscedata_transformador_connexioune_w","giscedata.transformador.connexioune","model_giscedata_transformador_connexioune","giscedata_cts.group_giscedata_cts_w",1,1,1,0
"access_giscedata_transformador_refrigerant_w","giscedata.transformador.refrigerant","model_giscedata_transformador_refrigerant","giscedata_cts.group_giscedata_cts_w",1,1,1,0
"access_giscedata_transformador_marca_w","giscedata.transformador.marca","model_giscedata_transformador_marca","giscedata_cts.group_giscedata_cts_w",1,1,1,0
"access_giscedata_transformador_magatzem_w","giscedata.transformador.magatzem","model_giscedata_transformador_magatzem","giscedata_cts.group_giscedata_cts_w",1,1,1,0
"access_giscedata_transformador_trafo_w","giscedata.transformador.trafo","model_giscedata_transformador_trafo","giscedata_cts.group_giscedata_cts_w",1,1,1,0
"access_giscedata_transformador_mesures_w","giscedata.transformador.mesures","model_giscedata_transformador_mesures","giscedata_cts.group_giscedata_cts_w",1,1,1,0
"access_giscedata_transformador_connexio_situacio_w","giscedata.transformador.connexio.situacio","model_giscedata_transformador_connexio_situacio","giscedata_cts.group_giscedata_cts_w",1,1,1,0
"access_giscedata_transformador_connexio_w","giscedata.transformador.connexio","model_giscedata_transformador_connexio","giscedata_cts.group_giscedata_cts_w",1,1,1,0
"access_giscedata_transformador_historic_w","giscedata.transformador.historic","model_giscedata_transformador_historic","giscedata_cts.group_giscedata_cts_w",1,1,1,0
"access_giscedata_transformador_incidencia_w","giscedata.transformador.incidencia","model_giscedata_transformador_incidencia","giscedata_cts.group_giscedata_cts_w",1,1,1,0
"access_giscedata_transformador_localitzacio_u","giscedata.transformador.localitzacio","model_giscedata_transformador_localitzacio","giscedata_cts.group_giscedata_cts_u",1,1,1,1
"access_giscedata_transformador_estat_u","giscedata.transformador.estat","model_giscedata_transformador_estat","giscedata_cts.group_giscedata_cts_u",1,1,1,1
"access_giscedata_transformador_connexioune_u","giscedata.transformador.connexioune","model_giscedata_transformador_connexioune","giscedata_cts.group_giscedata_cts_u",1,1,1,1
"access_giscedata_transformador_refrigerant_u","giscedata.transformador.refrigerant","model_giscedata_transformador_refrigerant","giscedata_cts.group_giscedata_cts_u",1,1,1,1
"access_giscedata_transformador_marca_u","giscedata.transformador.marca","model_giscedata_transformador_marca","giscedata_cts.group_giscedata_cts_u",1,1,1,1
"access_giscedata_transformador_magatzem_u","giscedata.transformador.magatzem","model_giscedata_transformador_magatzem","giscedata_cts.group_giscedata_cts_u",1,1,1,1
"access_giscedata_transformador_trafo_u","giscedata.transformador.trafo","model_giscedata_transformador_trafo","giscedata_cts.group_giscedata_cts_u",1,1,1,1
"access_giscedata_transformador_mesures_u","giscedata.transformador.mesures","model_giscedata_transformador_mesures","giscedata_cts.group_giscedata_cts_u",1,1,1,1
"access_giscedata_transformador_connexio_situacio_u","giscedata.transformador.connexio.situacio","model_giscedata_transformador_connexio_situacio","giscedata_cts.group_giscedata_cts_u",1,1,1,1
"access_giscedata_transformador_connexio_u","giscedata.transformador.connexio","model_giscedata_transformador_connexio","giscedata_cts.group_giscedata_cts_u",1,1,1,1
"access_giscedata_transformador_historic_u","giscedata.transformador.historic","model_giscedata_transformador_historic","giscedata_cts.group_giscedata_cts_u",1,1,1,1
"access_giscedata_transformador_incidencia_u","giscedata.transformador.incidencia","model_giscedata_transformador_incidencia","giscedata_cts.group_giscedata_cts_u",1,1,1,1
"access_foreign_ir_model_r","ir.model","base.model_ir_model","giscedata_cts.group_giscedata_cts_r",1,0,0,0
"access_foreign_ir_model_u","ir.model","base.model_ir_model","giscedata_cts.group_giscedata_cts_u",1,0,0,0
"access_foreign_ir_model_w","ir.model","base.model_ir_model","giscedata_cts.group_giscedata_cts_w",1,0,0,0
"access_foreign_res_partner_r","res.partner","base.model_res_partner","giscedata_cts.group_giscedata_cts_r",1,0,0,0
"access_foreign_res_partner_u","res.partner","base.model_res_partner","giscedata_cts.group_giscedata_cts_u",1,0,0,0
"access_foreign_res_partner_w","res.partner","base.model_res_partner","giscedata_cts.group_giscedata_cts_w",1,0,0,0
"access_giscedata_switch_trafos_r","giscedata.switch.trafo","model_giscedata_switch_trafo","giscedata_cts.group_giscedata_cts_r",1,0,0,0
"access_giscedata_switch_trafos_w","giscedata.switch.trafo","model_giscedata_switch_trafo","giscedata_cts.group_giscedata_cts_w",1,1,1,0
"access_giscedata_switch_trafos_u","giscedata.switch.trafo","model_giscedata_switch_trafo","giscedata_cts.group_giscedata_cts_u",1,1,1,1
