"id","name","model_id:id","group_id:id","perm_read","perm_write","perm_create","perm_unlink"
"access_giscegis_edge","giscegis.edge","model_giscegis_edge","base.group_user",1,1,1,0
"access_giscegis_edgetype","giscegis.edgetype","model_giscegis_edgetype","base.group_user",1,1,1,0

