"id","name","model_id:id","group_id:id","perm_read","perm_write","perm_create","perm_unlink"
"access_giscedata_transformadors_saturacio_r","giscedata.transformadors.saturacio","model_giscedata_transformadors_saturacio","giscedata_cts.group_giscedata_cts_r",1,0,0,0
"access_giscedata_transformadors_saturacio_w","giscedata.transformadors.saturacio","model_giscedata_transformadors_saturacio","giscedata_cts.group_giscedata_cts_w",1,1,1,0
"access_giscedata_transformadors_saturacio_u","giscedata.transformadors.saturacio","model_giscedata_transformadors_saturacio","giscedata_cts.group_giscedata_cts_u",1,1,1,1
