"id","name","model_id:id","group_id:id","perm_read","perm_write","perm_create","perm_unlink"
"access_giscegis_municipis_installations_view_r","giscegis.municipis.installations.view","model_giscegis_municipis_installations_view","giscegis_base.group_giscegis_base_r",1,0,0,0
"access_giscegis_municipis_installations_view_w","giscegis.municipis.installations.view","model_giscegis_municipis_installations_view","giscegis_base.group_giscegis_base_w",1,1,1,0
"access_giscegis_municipis_installations_view_u","giscegis.municipis.installations.view","model_giscegis_municipis_installations_view","giscegis_base.group_giscegis_base_u",1,1,1,1
