"id","name","model_id:id","group_id:id","perm_read","perm_write","perm_create","perm_unlink"
"access_project_project_manager","project.project manager","model_project_project","project.group_project_manager",1,1,1,1
"access_project_project","project.project","model_project_project","project.group_project_user",1,0,0,0
"access_project_task_type_user","project.task.type user","model_project_task_type","project.group_project_user",1,0,0,1
"access_project_task_type","project.task.type","model_project_task_type","project.group_project_manager",1,1,1,1
"access_project_task_manager","project.task manager","model_project_task","project.group_project_manager",1,1,1,1
"access_project_task","project.task","model_project_task","project.group_project_user",1,1,1,1
"access_project_task_work","project.task.work","model_project_task_work","project.group_project_user",1,1,1,1
"access_project_task_work_manager","project.task.work.manager","model_project_task_work","project.group_project_manager",1,1,1,1
"access_config_compute_remaining","project.config.compute.remaining","model_config_compute_remaining","project.group_project_user",1,1,1,1
"access_config_compute_remaining_manager","project.config.compute.remaining.manager","model_config_compute_remaining","project.group_project_manager",1,1,1,1
"access_project_task_work_wizard_workdones","project.task.work","model_project_task_work_wizard_workdones","project.group_project_user",1,1,1,1
"access_wizard_move_workdones_manager","wizard.move.workdones","model_wizard_move_workdones","project.group_project_manager",1,1,1,1
"access_wizard_move_workdones","wizard.move.workdones","model_wizard_move_workdones","project.group_project_user",1,0,0,0
"access_project_task_wizard_regularize_time","project.task","model_project_task_wizard_regularize_time","project.group_project_user",1,1,1,1
"access_project_user_rcw","project.user","model_project_user","project.group_project_finance",1,1,1,0
"access_project_user_rcw","project.user","model_project_user","project.group_project_manager",1,1,1,0
"access_project_user_rcw","project.user","model_project_user","project.group_project_user",1,1,1,0
