"id","name","model_id:id","group_id:id","perm_read","perm_write","perm_create","perm_unlink"
"access_giscegis_trafos_geom","giscegis.trafos.geom","model_giscegis_trafos_geom","base.group_user",1,1,1,0
"access_giscegis_trafos_geom_r","giscegis.trafos.geom","model_giscegis_trafos_geom","giscegis_base.group_giscegis_base_r",1,0,0,0
"access_giscegis_trafos_geom_w","giscegis.trafos.geom","model_giscegis_trafos_geom","giscegis_base.group_giscegis_base_w",1,1,1,0
"access_giscegis_trafos_geom,_u","giscegis.trafos.geom","model_giscegis_trafos_geom","giscegis_base.group_giscegis_base_u",1,1,1,1