"id","name","model_id:id","group_id:id","perm_read","perm_write","perm_create","perm_unlink"
"access_giscedata_dfestius_r","giscedata.dfestius","model_giscedata_dfestius","base.group_user",1,0,0,0
"access_giscedata_dfestius_u","giscedata.dfestius","model_giscedata_dfestius","base.group_system",1,1,1,1
