"id","name","model_id:id","group_id:id","perm_read","perm_write","perm_create","perm_unlink"
"access_giscedata_condensadors_r","giscedata.condensadors","model_giscedata_condensadors","giscedata_condensadors.group_giscedata_condensadors_r",1,0,0,0
"access_giscedata_condensadors_u","giscedata.condensadors","model_giscedata_condensadors","giscedata_condensadors.group_giscedata_condensadors_u",1,1,1,1
"access_giscedata_condensadors_w","giscedata.condensadors","model_giscedata_condensadors","giscedata_condensadors.group_giscedata_condensadors_w",1,1,1,0