"id","name","model_id:id","group_id:id","perm_read","perm_write","perm_create","perm_unlink"
"access_giscegis_blocs_fusiblesat","giscegis.blocs.fusiblesat","model_giscegis_blocs_fusiblesat","base.group_user",1,1,1,0
"access_giscegis_blocs_fusiblesat_blockname","giscegis.blocs.fusiblesat.blockname","model_giscegis_blocs_fusiblesat_blockname","base.group_user",1,1,1,0
