"id","name","model_id:id","group_id:id","perm_read","perm_write","perm_create","perm_unlink"
"access_hr_performance","hr.performance","model_hr_performance",hr.group_hr_user,1,0,0,0
"access_hr_performance_line","hr.performance.line","model_hr_performance_line",hr.group_hr_user,1,0,0,0
"access_hr_performance_line_attribute","hr.performance.line.attribute","model_hr_performance_line_attribute",hr.group_hr_user,1,0,0,0
"access_attribute_line","attribute.line","model_attribute_line",,1,1,1,1
"access_hr_performance","hr.performance","model_hr_performance",hr.group_hr_manager,1,1,1,1
"access_hr_performance_line","hr.performance.line","model_hr_performance_line",hr.group_hr_manager,1,1,1,1
"access_hr_performance_line_attribute","hr.performance.line.attribute","model_hr_performance_line_attribute",hr.group_hr_manager,1,1,1,1