"id","name","model_id:id","group_id:id","perm_read","perm_write","perm_create","perm_unlink"
"access_giscegis_blocs_fusiblesbt","giscegis.blocs.fusiblesbt","model_giscegis_blocs_fusiblesbt","base.group_user",1,1,1,0
"access_giscegis_blocs_fusiblesbt_blockname","giscegis.blocs.fusiblesbt.blockname","model_giscegis_blocs_fusiblesbt_blockname","base.group_user",1,1,1,0
