"id","name","model_id:id","group_id:id","perm_read","perm_write","perm_create","perm_unlink"
"access_wizard_generar_cnmc_ivc_r","wizard.generar.cnmc.ivc","model_wizard_generar_cnmc_ivc","giscedata_cups.group_giscedata_cups_r",1,0,0,0
"access_wizard_generar_cnmc_ivc_u","wizard.generar.cnmc.ivc","model_wizard_generar_cnmc_ivc","giscedata_cups.group_giscedata_cups_u",1,1,1,1
"access_wizard_generar_cnmc_ivc_w","wizard.generar.cnmc.ivc","model_wizard_generar_cnmc_ivc","giscedata_cups.group_giscedata_cups_w",1,1,1,0
