"id","name","model_id:id","group_id:id","perm_read","perm_write","perm_create","perm_unlink"
"access_payment_order_history_r","payment.order.history","model_payment_order_history","remeses_base.group_remeses_base_r",1,0,0,0
"access_payment_order_history_u","payment.order.history","model_payment_order_history","remeses_base.group_remeses_base_u",1,1,1,1
"access_payment_order_history_w","payment.order.history","model_payment_order_history","remeses_base.group_remeses_base_w",1,1,1,0
"access_wizard_afegir_factures_fitxer_r","wizard.afegir.factures.fitxer","model_wizard_afegir_factures_fitxer","remeses_base.group_remeses_base_r",1,0,0,0
"access_wizard_afegir_factures_fitxer_u","wizard.afegir.factures.fitxer","model_wizard_afegir_factures_fitxer","remeses_base.group_remeses_base_u",1,1,1,1
"access_wizard_afegir_factures_fitxer_w","wizard.afegir.factures.fitxer","model_wizard_afegir_factures_fitxer","remeses_base.group_remeses_base_w",1,1,1,0
"access_pagar_remesa_wizard_r","pagar.remesa.wizard","model_pagar_remesa_wizard","remeses_base.group_remeses_base_r",1,0,0,0
"access_pagar_remesa_wizard_u","pagar.remesa.wizard","model_pagar_remesa_wizard","remeses_base.group_remeses_base_u",1,1,1,1
"access_pagar_remesa_wizard_w","pagar.remesa.wizard","model_pagar_remesa_wizard","remeses_base.group_remeses_base_w",1,1,1,0
"access_wizard_seleccionar_factures_remesa_rcwd","wizard.seleccionar.factures.remesa","model_wizard_seleccionar_factures_remesa","remeses_base.group_remeses_base_u",1,1,1,1
"access_wizard_seleccionar_factures_remesa_r","wizard.seleccionar.factures.remesa","model_wizard_seleccionar_factures_remesa","remeses_base.group_remeses_base_r",1,0,0,0
"access_wizard_seleccionar_factures_remesa_rcw","wizard.seleccionar.factures.remesa","model_wizard_seleccionar_factures_remesa","remeses_base.group_remeses_base_w",1,1,1,0