"id","name","model_id:id","group_id:id","perm_read","perm_write","perm_create","perm_unlink"
"access_wizard_stg_meter_requests_rcwd","wizard.stg.meter.requests","model_wizard_stg_meter_requests","giscedata_telegestio.group_telegestio_manager",1,1,1,1
"access_wizard_stg_meter_requests_r","wizard.stg.meter.requests","model_wizard_stg_meter_requests","giscedata_telegestio.group_telegestio_user",1,0,0,0
"access_wizard_stg_requests_rcwd","wizard.stg.requests","model_wizard_stg_requests","giscedata_telegestio.group_telegestio_manager",1,1,1,1
"access_wizard_stg_requests_r","wizard.stg.requests","model_wizard_stg_requests","giscedata_telegestio.group_telegestio_user",1,0,0,0
"access_wizard_stg_register_requests_rcwd","wizard.stg.register.requests","model_wizard_stg_register_requests","giscedata_telegestio.group_telegestio_manager",1,1,1,1
"access_wizard_stg_register_requests_r","wizard.stg.register.requests","model_wizard_stg_register_requests","giscedata_telegestio.group_telegestio_user",1,0,0,0
"access_wizard_stg_dc_requests_rcwd","wizard.stg.dc.requests","model_wizard_stg_dc_requests","giscedata_telegestio.group_telegestio_manager",1,1,1,1
"access_wizard_stg_dc_requests_r","wizard.stg.dc.requests","model_wizard_stg_dc_requests","giscedata_telegestio.group_telegestio_user",1,0,0,0
"access_wizard_stg_all_dc_requests_rcwd","wizard.stg.all.dc.requests","model_wizard_stg_all_dc_requests","giscedata_telegestio.group_telegestio_manager",1,1,1,1
"access_wizard_stg_all_dc_requests_r","wizard.stg.all.dc.requests","model_wizard_stg_all_dc_requests","giscedata_telegestio.group_telegestio_user",1,0,0,0
"access_tg_stg_request_register_rcwd","tg.stg.request.register","model_tg_stg_request_register","giscedata_telegestio.group_telegestio_manager",1,1,1,1
"access_tg_stg_request_register_r","tg.stg.request.register","model_tg_stg_request_register","giscedata_telegestio.group_telegestio_user",1,0,0,0
"access_stg_requests_meters_rel_rcwd","stg.requests.meters.rel","model_stg_requests_meters_rel","giscedata_telegestio.group_telegestio_manager",1,1,1,1
"access_stg_requests_meters_rel_r","stg.requests.meters.rel","model_stg_requests_meters_rel","giscedata_telegestio.group_telegestio_user",1,0,0,0
"access_stg_requests_tg_reader_register_rel_rcwd","stg.requests.tg.reader.register.rel","model_stg_requests_tg_reader_register_rel","giscedata_telegestio.group_telegestio_manager",1,1,1,1
"access_stg_requests_tg_reader_register_rel_r","stg.requests.tg.reader.register.rel","model_stg_requests_tg_reader_register_rel","giscedata_telegestio.group_telegestio_user",1,0,0,0
"access_giscedata_telegestio_stg_rcwd","giscedata.telegestio.stg","model_giscedata_telegestio_stg","giscedata_telegestio.group_telegestio_manager",1,1,1,1
"access_giscedata_telegestio_stg_r","giscedata.telegestio.stg","model_giscedata_telegestio_stg","giscedata_telegestio.group_telegestio_user",1,0,0,0
"access_tg_stg_request_summary_rcwd","tg.stg.request.summary","model_tg_stg_request_summary","giscedata_telegestio.group_telegestio_manager",1,1,1,1
"access_tg_stg_request_summary_r","tg.stg.request.summary","model_tg_stg_request_summary","giscedata_telegestio.group_telegestio_user",1,0,0,0
"access_stg_summary_meters_rel_rcwd","stg.summary.meters.rel","model_stg_summary_meters_rel","giscedata_telegestio.group_telegestio_manager",1,1,1,1
"access_stg_summary_meters_rel_r","stg.summary.meters.rel","model_stg_summary_meters_rel","giscedata_telegestio.group_telegestio_user",1,0,0,0
"access_stg_summary_meters_after_rel_rcwd","stg.summary.meters.after.rel","model_stg_summary_meters_after_rel","giscedata_telegestio.group_telegestio_manager",1,1,1,1
"access_stg_summary_meters_after_rel_r","stg.summary.meters.after.rel","model_stg_summary_meters_after_rel","giscedata_telegestio.group_telegestio_user",1,0,0,0