"id","name","model_id:id","group_id:id","perm_read","perm_write","perm_create","perm_unlink"
"access_giscegis_blocs_escomeses_r","giscegis.blocs.escomeses","model_giscegis_blocs_escomeses","giscegis_base.group_giscegis_base_r",1,0,0,0
"access_giscegis_blocs_escomeses_w","giscegis.blocs.escomeses","model_giscegis_blocs_escomeses","giscegis_base.group_giscegis_base_w",1,1,1,0
"access_giscegis_blocs_escomeses_u","giscegis.blocs.escomeses","model_giscegis_blocs_escomeses","giscegis_base.group_giscegis_base_u",1,1,1,1
