"id","name","model_id:id","group_id:id","perm_read","perm_write","perm_create","perm_unlink"
"access_wizard_repartimbe_send_file_u","wizard.repartimbe.send.file","model_wizard_repartimbe_send_file","giscedata_facturacio.group_giscedata_facturacio_u",1,1,1,1
"access_wizard_repartimbe_send_file_r","wizard.repartimbe.send.file","model_wizard_repartimbe_send_file","giscedata_facturacio.group_giscedata_facturacio_r",1,0,0,0
"access_wizard_repartimbe_send_file_rcwd","wizard.repartimbe.send.file","model_wizard_repartimbe_send_file","giscedata_facturacio.group_giscedata_facturacio_w",1,1,1,0
"access_wizard_interpretate_repartimbe_response_file_u","wizard.interpretate.repartimbe.response.file","model_wizard_interpretate_repartimbe_response_file","giscedata_facturacio.group_giscedata_facturacio_u",1,1,1,1
"access_wizard_interpretate_repartimbe_response_file_r","wizard.interpretate.repartimbe.response.file","model_wizard_interpretate_repartimbe_response_file","giscedata_facturacio.group_giscedata_facturacio_r",1,0,0,0
"access_wizard_interpretate_repartimbe_response_file_w","wizard.interpretate.repartimbe.response.file","model_wizard_interpretate_repartimbe_response_file","giscedata_facturacio.group_giscedata_facturacio_w",1,1,1,0
"access_giscedata_repartirbe_hash_imports_u","giscedata.repartirbe.hash.imports","model_giscedata_repartirbe_hash_imports","giscedata_facturacio.group_giscedata_facturacio_u",1,1,1,1
"access_giscedata_repartirbe_hash_imports_r","giscedata.repartirbe.hash.imports","model_giscedata_repartirbe_hash_imports","giscedata_facturacio.group_giscedata_facturacio_r",1,0,0,0
"access_giscedata_repartirbe_hash_imports_w","giscedata.repartirbe.hash.imports","model_giscedata_repartirbe_hash_imports","giscedata_facturacio.group_giscedata_facturacio_w",1,1,1,0
