"id","name","model_id:id","group_id:id","perm_read","perm_write","perm_create","perm_unlink"
"access_giscegis_search_type_r","giscegis.search.type","model_giscegis_search_type","giscegis_base.group_giscegis_base_r",1,0,0,0
"access_giscegis_search_type_w","giscegis.search.type","model_giscegis_search_type","giscegis_base.group_giscegis_base_w",1,1,1,0
"access_giscegis_search_type_u","giscegis.search.type","model_giscegis_search_type","giscegis_base.group_giscegis_base_u",1,1,1,1
