"id","name","model_id:id","group_id:id","perm_read","perm_write","perm_create","perm_unlink"
"access_giscegis_blocs_suports_bt_blockname_r","giscegis.blocs.suports.bt.blockname","model_giscegis_blocs_suports_bt_blockname","giscegis_base.group_giscegis_base_r",1,0,0,0
"access_giscegis_blocs_suports_bt_r","giscegis.blocs.suports.bt","model_giscegis_blocs_suports_bt","giscegis_base.group_giscegis_base_r",1,0,0,0
"access_giscegis_blocs_suports_bt_blockname_w","giscegis.blocs.suports.bt.blockname","model_giscegis_blocs_suports_bt_blockname","giscegis_base.group_giscegis_base_w",1,1,1,0
"access_giscegis_blocs_suports_bt_w","giscegis.blocs.suports.bt","model_giscegis_blocs_suports_bt","giscegis_base.group_giscegis_base_w",1,1,1,0
"access_giscegis_blocs_suports_bt_blockname_u","giscegis.blocs.suports.bt.blockname","model_giscegis_blocs_suports_bt_blockname","giscegis_base.group_giscegis_base_u",1,1,1,1
"access_giscegis_blocs_suports_bt_u","giscegis.blocs.suports.bt","model_giscegis_blocs_suports_bt","giscegis_base.group_giscegis_base_u",1,1,1,1
