"id","name","model_id:id","group_id:id","perm_read","perm_write","perm_create","perm_unlink"
"access_wizard_giscedata_bt_reformes_anuals_r","wizard.giscedata.bt.reformes.anuals","model_wizard_giscedata_bt_reformes_anuals","giscedata_bt.group_giscedata_bt_r",1,0,0,0
"access_wizard_giscedata_bt_reformes_anuals_u","wizard.giscedata.bt.reformes.anuals","model_wizard_giscedata_bt_reformes_anuals","giscedata_bt.group_giscedata_bt_u",1,1,1,0
"access_wizard_giscedata_bt_reformes_anuals_w","wizard.giscedata.bt.reformes.anuals","model_wizard_giscedata_bt_reformes_anuals","giscedata_bt.group_giscedata_bt_w",1,1,1,1