"id","name","model_id:id","group_id:id","perm_read","perm_write","perm_create","perm_unlink"
"access_giscegis_blocs_suports_bt","giscegis.blocs.suports.bt","model_giscegis_blocs_suports_bt","base.group_user",1,1,1,0
"access_giscegis_blocs_suports_bt_blockname","giscegis.blocs.suports.bt.blockname","model_giscegis_blocs_suports_bt_blockname","base.group_user",1,1,1,0

