"id","name","model_id:id","group_id:id","perm_read","perm_write","perm_create","perm_unlink"
"access_wizard_crear_xml_suplement_territorial_rcwd","wizard.crear.xml.suplement.territorial","model_wizard_crear_xml_suplement_territorial","giscedata_liquidacio.group_giscedata_liquidacio_u",1,1,1,1
"access_wizard_crear_xml_suplement_territorial_rcwd","wizard.crear.xml.suplement.territorial","model_wizard_crear_xml_suplement_territorial","giscedata_liquidacio.group_admin",1,1,1,1
"access_wizard_crear_xml_suplement_territorial_r","wizard.crear.xml.suplement.territorial","model_wizard_crear_xml_suplement_territorial","giscedata_liquidacio.group_read",1,0,0,0
"access_wizard_crear_xml_suplement_territorial_r","wizard.crear.xml.suplement.territorial","model_wizard_crear_xml_suplement_territorial","giscedata_liquidacio.group_giscedata_liquidacio_r",1,0,0,0
"access_wizard_crear_xml_suplement_territorial_rcw","wizard.crear.xml.suplement.territorial","model_wizard_crear_xml_suplement_territorial","giscedata_liquidacio.group_write",1,1,1,0
"access_wizard_crear_xml_suplement_territorial_rcw","wizard.crear.xml.suplement.territorial","model_wizard_crear_xml_suplement_territorial","giscedata_liquidacio.group_giscedata_liquidacio_w",1,1,1,0
"access_giscedata_liquidacio_suplement_territorial_data_r","giscedata.liquidacio.suplement.territorial.data","model_giscedata_liquidacio_suplement_territorial_data","giscedata_liquidacio.group_read",1,0,0,0
"access_giscedata_liquidacio_suplement_territorial_data_r","giscedata.liquidacio.suplement.territorial.data","model_giscedata_liquidacio_suplement_territorial_data","giscedata_liquidacio.group_giscedata_liquidacio_r",1,0,0,0
"access_giscedata_liquidacio_suplement_territorial_data_rcw","giscedata.liquidacio.suplement.territorial.data","model_giscedata_liquidacio_suplement_territorial_data","giscedata_liquidacio.group_write",1,1,1,0
"access_giscedata_liquidacio_suplement_territorial_data_rcw","giscedata.liquidacio.suplement.territorial.data","model_giscedata_liquidacio_suplement_territorial_data","giscedata_liquidacio.group_giscedata_liquidacio_w",1,1,1,0
"access_giscedata_liquidacio_suplement_territorial_data_rcwd","giscedata.liquidacio.suplement.territorial.data","model_giscedata_liquidacio_suplement_territorial_data","giscedata_liquidacio.group_giscedata_liquidacio_u",1,1,1,1
"access_giscedata_liquidacio_suplement_territorial_data_rcwd","giscedata.liquidacio.suplement.territorial.data","model_giscedata_liquidacio_suplement_territorial_data","giscedata_liquidacio.group_admin",1,1,1,1
