"id","name","model_id:id","group_id:id","perm_read","perm_write","perm_create","perm_unlink"
"access_giscegis_txt_cartografia","giscegis.txt.cartografia","model_giscegis_txt_cartografia","base.group_user",1,1,1,0
"access_giscegis_importar_txt_cartografia","giscegis.importar.txt.cartografia","model_giscegis_importar_txt_cartografia","base.group_user",1,1,1,0
