"id","name","model_id:id","group_id:id","perm_read","perm_write","perm_create","perm_unlink"
"access_wizard_change_payment_type_rcwd","wizard.change.payment.type","model_wizard_change_payment_type","giscedata_facturacio.group_giscedata_facturacio_u",1,1,1,1
"access_wizard_change_payment_type_r","wizard.change.payment.type","model_wizard_change_payment_type","giscedata_facturacio.group_giscedata_facturacio_r",1,0,0,0
"access_wizard_change_payment_type_rcw","wizard.change.payment.type","model_wizard_change_payment_type","giscedata_facturacio.group_giscedata_facturacio_w",1,1,1,0
