"id","name","model_id:id","group_id:id","perm_read","perm_write","perm_create","perm_unlink"
"access_giscegis_configsimulacio_at","giscegis.configsimulacio.at","model_giscegis_configsimulacio_at","base.group_user",1,1,1,0
"access_giscegis_configsimulacio_at_oberts","giscegis.configsimulacio.at.oberts","model_giscegis_configsimulacio_at_oberts","base.group_user",1,1,1,0
