"id","name","model_id:id","group_id:id","perm_read","perm_write","perm_create","perm_unlink"
"access_giscedata_curva_cs_cide_wizard_r","giscedata.curva.cs.cide.wizard","model_giscedata_curva_cs_cide_wizard","giscedata_lectures.group_giscedata_lectures_r",1,0,0,0
"access_giscedata_curva_cs_cide_wizard_u","giscedata.curva.cs.cide.wizard","model_giscedata_curva_cs_cide_wizard","giscedata_lectures.group_giscedata_lectures_u",1,1,1,1
"access_giscedata_curva_cs_cide_wizard_w","giscedata.curva.cs.cide.wizard","model_giscedata_curva_cs_cide_wizard","giscedata_lectures.group_giscedata_lectures_w",1,1,1,0
