"id","name","model_id:id","group_id:id","perm_read","perm_write","perm_create","perm_unlink"
"access_norma57_suffix","norma57.suffix","model_norma57_suffix","account_payment.group_account_payment",1,1,1,1
"access_norma57_file","norma57.file","model_norma57_file","account_payment.group_account_payment",1,1,1,1
"access_norma57_file_line","norma57.file.line","model_norma57_file_line","account_payment.group_account_payment",1,1,1,1
"access_wizard_import_norma57","wizard.import.norma57","model_wizard_import_norma57","account_payment.group_account_payment",1,1,1,1
"access_wizard_export_n57_excel","wizard.export.n57.excel","model_wizard_export_n57_excel","account_payment.group_account_payment",1,1,1,1
"access_wizard_open_n57_invoices","wizard.open.n57.invoices","model_wizard_open_n57_invoices","account_payment.group_account_payment",1,1,1,1