"id","name","model_id:id","group_id:id","perm_read","perm_write","perm_create","perm_unlink"
"access_giscegis_lbt_171","giscegis.lbt.171","model_giscegis_lbt_171","base.group_user",1,1,1,0
"access_giscegis_lbt_171_seccio","giscegis.lbt.171.seccio","model_giscegis_lbt_171_seccio","base.group_user",1,1,1,0
"access_giscegis_lbt_171_tensio","giscegis.lbt.171.tensio","model_giscegis_lbt_171_tensio","base.group_user",1,1,1,0
