id,name,model_id:id,group_id:id,perm_read,perm_write,perm_create,perm_unlink
"access_sync_file_invoice_user","sync_file_invoice user","model_sync_file_invoice","giscedata_polissa.group_giscedata_polissa_w",1,1,1,0
"access_sync_file_invoice_manager","sync_file_invoice manager","model_sync_file_invoice","giscedata_polissa.group_giscedata_polissa_u",1,1,1,1
"access_sync_line_invoice_user","sync_line_invoice user","model_sync_line_invoice","giscedata_polissa.group_giscedata_polissa_w",1,1,1,0
"access_sync_line_invoice_manager","sync_line_invoice manager","model_sync_line_invoice","giscedata_polissa.group_giscedata_polissa_u",1,1,1,1
