"id","name","model_id:id","group_id:id","perm_read","perm_write","perm_create","perm_unlink"
"access_foreign_account_invoice_r","account.invoice","account.model_account_invoice","account_invoice_base.group_account_invoice_r",1,0,0,0
"access_foreign_account_invoice_u","account.invoice","account.model_account_invoice","account_invoice_base.group_account_invoice_u",1,0,0,0
"access_foreign_account_invoice_w","account.invoice","account.model_account_invoice","account_invoice_base.group_account_invoice_w",1,0,0,0
"access_foreign_account_invoice_line_r","account.invoice.line","account.model_account_invoice_line","account_invoice_base.group_account_invoice_r",1,0,0,0
"access_foreign_account_invoice_line_u","account.invoice.line","account.model_account_invoice_line","account_invoice_base.group_account_invoice_u",1,0,0,0
"access_foreign_account_invoice_line_w","account.invoice.line","account.model_account_invoice_line","account_invoice_base.group_account_invoice_w",1,0,0,0
"access_account_invoice_report_r","account_invoice_report","model_account_invoice_report","account_invoice_base.group_account_invoice_r",1,0,0,0