"id","name","model_id:id","group_id:id","perm_read","perm_write","perm_create","perm_unlink"
"access_giscegis_configdefault_bt_r","giscegis.configdefault.bt","model_giscegis_configdefault_bt","giscegis_base.group_giscegis_base_r",1,0,0,0
"access_giscegis_open_nodes_bt_r","giscegis.open.nodes.bt","model_giscegis_open_nodes_bt","giscegis_base.group_giscegis_base_r",1,0,0,0
"access_giscegis_configdefault_bt_w","giscegis.configdefault.bt","model_giscegis_configdefault_bt","giscegis_base.group_giscegis_base_w",1,1,1,0
"access_giscegis_open_nodes_bt_w","giscegis.open.nodes.bt","model_giscegis_open_nodes_bt","giscegis_base.group_giscegis_base_w",1,1,1,0
"access_giscegis_configdefault_bt_u","giscegis.configdefault.bt","model_giscegis_configdefault_bt","giscegis_base.group_giscegis_base_u",1,1,1,1
"access_giscegis_open_nodes_bt_u","giscegis.open.nodes.bt","model_giscegis_open_nodes_bt","giscegis_base.group_giscegis_base_u",1,1,1,1
