"id","name","model_id:id","group_id:id","perm_read","perm_write","perm_create","perm_unlink"
"access_giscedata_control_gestio_comer_r","wizard.control.gestio.comer.files","model_wizard_control_gestio_comer_files","giscedata_control_gestio_comer.group_giscedata_control_gestio_comer_r",1,0,0,0
"access_giscedata_control_gestio_comer_w","wizard.control.gestio.comer.files","model_wizard_control_gestio_comer_files","giscedata_control_gestio_comer.group_giscedata_control_gestio_comer_w",1,1,1,0
"access_giscedata_control_gestio_comer_u","wizard.control.gestio.comer.files","model_wizard_control_gestio_comer_files","giscedata_control_gestio_comer.group_giscedata_control_gestio_comer_u",1,1,1,1